\select@language {spanish}
\addvspace {10\p@ }
\contentsline {figure}{\numberline {\textbf {1-1}}{\ignorespaces Esquema del entorno de desarrollo\relax }}{1}
\addvspace {10\p@ }
\contentsline {figure}{\numberline {\textbf {2-1}}{\ignorespaces Conformaci\IeC {\'o}n esquem\IeC {\'a}tica del ADT\relax }}{5}
\contentsline {figure}{\numberline {\textbf {2-2}}{\ignorespaces Diagrama de Comunicaci\IeC {\'o}n\relax }}{6}
\contentsline {figure}{\numberline {\textbf {2-3}}{\ignorespaces Alternativa de configuraci\IeC {\'o}n de comunicaci\IeC {\'o}n\relax }}{6}
\contentsline {figure}{\numberline {\textbf {2-4}}{\ignorespaces Comunicaci\IeC {\'o}n inal\IeC {\'a}mbrica para (a) compartir un prototipo con varios Desarrolladores, (b) permitirle a un Host administrar una red de prototipos\relax }}{7}
\addvspace {10\p@ }
\addvspace {10\p@ }
\contentsline {figure}{\numberline {\textbf {4-1}}{\ignorespaces Diagrama del esquem\IeC {\'a}tico a desarrollar\relax }}{10}
\contentsline {figure}{\numberline {\textbf {4-2}}{\ignorespaces Diagrama de los bloques fundamentales del software a dise\IeC {\~n}ar para el HOST\relax }}{11}
\addvspace {10\p@ }
\addvspace {10\p@ }
\addvspace {10\p@ }
\addvspace {10\p@ }
\addvspace {10\p@ }
\addvspace {10\p@ }
\addvspace {10\p@ }
\addvspace {10\p@ }
