\relax 
\@writefile{toc}{\contentsline {section}{\numberline {1}``In-text'' listing highlighting}{1}}
\@writefile{toc}{\contentsline {section}{\numberline {2}External listing highlighting}{1}}
\@writefile{toc}{\contentsline {section}{\numberline {3}Inline highlighting}{1}}
