\relax 
\catcode `"\active 
\catcode `<\active 
\catcode `>\active 
\@nameuse{es@quoting}
\@input{HojaTitulo/HojaTituloMSc.aux}
\select@language{spanish}
\@writefile{toc}{\select@language{spanish}}
\@writefile{lof}{\select@language{spanish}}
\@writefile{lot}{\select@language{spanish}}
\@input{Resumen.aux}
\@writefile{toc}{\contentsline {chapter}{\hbox to\@tempdima {\hfil }Lista de figuras}{\es@scroman  {ix}}}
\@writefile{toc}{\contentsline {chapter}{\hbox to\@tempdima {\hfil }Lista de tablas}{\es@scroman  {xi}}}
\@input{Cap/Int.aux}
\@input{Cap/AM.aux}
\@input{Cap/MTyH.aux}
\@input{Cap/ContYMed.aux}
\@input{Cap/GI.aux}
\@input{Cap/AllInt.aux}
\@input{Cap/InEx.aux}
\@input{Anexos/Anexos_tentativos.aux}
\bibstyle{apalike}
\bibdata{BibliMSc}
\@writefile{toc}{\contentsline {chapter}{\hbox to\@tempdima {\hfil }Bibliograf\'{\i }a}{81}}
\global\@altsecnumformattrue
