\relax 
\@writefile{lof}{\contentsline {figure}{\numberline {\textbf  {6-13}}{\ignorespaces Caracter\IeC {\'\i }sticas de salida de compuerta CMOS: Valores de tensi\IeC {\'o}n.\relax }}{68}}
\newlabel{cmoslogic}{{\textbf  {6-13}}{68}}
\@writefile{toc}{\contentsline {section}{\numberline {6.5}Integraci\IeC {\'o}n de todos los componentes}{68}}
\@writefile{toc}{\contentsline {subsection}{\numberline {6.5.1}Comunicaci\IeC {\'o}n entre el Raspberry Pi y el Arduino}{68}}
\@writefile{toc}{\contentsline {subsubsection}{\numberline {6.5.1.1}Desarrollando una interf\IeC {\'a}z para el puerto serial}{68}}
\@writefile{lof}{\contentsline {figure}{\numberline {\textbf  {6-14}}{\ignorespaces Caracter\IeC {\'\i }sticas de salida de compuerta CMOS: coneccionado de compuertas de la misma familia.\relax }}{69}}
\newlabel{acceptableTTL}{{\textbf  {6-14}}{69}}
\@writefile{lof}{\contentsline {figure}{\numberline {\textbf  {6-15}}{\ignorespaces Caracter\IeC {\'\i }sticas de salida de compuerta TTL: Valores de tensi\IeC {\'o}n.\relax }}{70}}
\newlabel{acceptableTTL}{{\textbf  {6-15}}{70}}
\@writefile{lof}{\contentsline {figure}{\numberline {\textbf  {6-16}}{\ignorespaces Caracter\IeC {\'\i }sticas de salida del puerto del Arduino.\relax }}{70}}
\newlabel{acceptableTTL}{{\textbf  {6-16}}{70}}
\@writefile{lof}{\contentsline {figure}{\numberline {\textbf  {6-17}}{\ignorespaces Adaptaci\IeC {\'o}n de valores de tensi\IeC {\'o}n para la comunicaci\IeC {\'o}n serial.\relax }}{71}}
\newlabel{serialcon}{{\textbf  {6-17}}{71}}
\@writefile{toc}{\contentsline {subsubsection}{\numberline {6.5.1.2}Protocolo de comunicaci\IeC {\'o}n}{71}}
\@writefile{toc}{\contentsline {subsection}{\numberline {6.5.2}Alimentaci\IeC {\'o}n de los componenetes}{72}}
\@writefile{lof}{\contentsline {figure}{\numberline {\textbf  {6-18}}{\ignorespaces Adaptaci\IeC {\'o}n de valores de tensi\IeC {\'o}n para la comunicaci\IeC {\'o}n serial.\relax }}{73}}
\newlabel{serialcon}{{\textbf  {6-18}}{73}}
\@writefile{toc}{\contentsline {subsection}{\numberline {6.5.3}Armado del ADT}{73}}
\@writefile{toc}{\contentsline {subsubsection}{\numberline {6.5.3.1}Definici\IeC {\'o}n de las dimensi\IeC {\'o}nes y dise\IeC {\~n}o de un contenedor}{73}}
\@writefile{toc}{\contentsline {subsubsection}{\numberline {6.5.3.2}Puertos del ADT}{73}}
\@setckpt{Cap/AllInt}{
\setcounter{page}{74}
\setcounter{equation}{0}
\setcounter{enumi}{0}
\setcounter{enumii}{0}
\setcounter{enumiii}{0}
\setcounter{enumiv}{0}
\setcounter{footnote}{6}
\setcounter{mpfootnote}{0}
\setcounter{part}{0}
\setcounter{chapter}{6}
\setcounter{section}{5}
\setcounter{subsection}{3}
\setcounter{subsubsection}{2}
\setcounter{paragraph}{0}
\setcounter{subparagraph}{0}
\setcounter{figure}{18}
\setcounter{table}{1}
\setcounter{parentequation}{0}
\setcounter{float@type}{8}
\setcounter{subfigure}{0}
\setcounter{lofdepth}{1}
\setcounter{subtable}{0}
\setcounter{lotdepth}{1}
\setcounter{LT@tables}{0}
\setcounter{LT@chunks}{0}
\setcounter{nlinenum}{0}
\setcounter{ContinuedFloat}{0}
\setcounter{r@tfl@t}{0}
\setcounter{lstnumber}{103}
\setcounter{lstlisting}{2}
}
