\relax 
\@writefile{lof}{\contentsline {figure}{\numberline {\textbf  {6-6}}{\ignorespaces Diagrama de la interacci\IeC {\'o}n del sistema de control.\relax }}{54}}
\newlabel{101}{{\textbf  {6-6}}{54}}
\@writefile{toc}{\contentsline {section}{\numberline {6.2}Desarrollo del sistema de control y mediciones}{54}}
\@writefile{toc}{\contentsline {subsection}{\numberline {6.2.1}Elecci\IeC {\'o}n del numero y tipo de puertos}{54}}
\@writefile{toc}{\contentsline {subsection}{\numberline {6.2.2}Esquema de los puertos}{55}}
\@writefile{toc}{\contentsline {subsubsection}{\numberline {6.2.2.1}Puerto de entrada y salida digital}{55}}
\@writefile{toc}{\contentsline {subsubsection}{\numberline {6.2.2.2}Puerto de entrada anal\IeC {\'o}gico}{55}}
\@writefile{lot}{\contentsline {table}{\numberline {\textbf  {6-1}}{\ignorespaces Resultados obtenidos para las mediciones del rango din\IeC {\'a}mico de los puertos anal\IeC {\'o}gicos\relax }}{56}}
\newlabel{my-label}{{\textbf  {6-1}}{56}}
\@writefile{toc}{\contentsline {subsubsection}{\numberline {6.2.2.3}Puerto de salida digital: llave de alta potencia}{56}}
\@writefile{toc}{\contentsline {subsection}{\numberline {6.2.3}Diagrama de funcionamiento del circuito de control}{56}}
\@setckpt{Cap/ContYMed}{
\setcounter{page}{57}
\setcounter{equation}{0}
\setcounter{enumi}{0}
\setcounter{enumii}{0}
\setcounter{enumiii}{0}
\setcounter{enumiv}{0}
\setcounter{footnote}{1}
\setcounter{mpfootnote}{0}
\setcounter{part}{0}
\setcounter{chapter}{6}
\setcounter{section}{2}
\setcounter{subsection}{3}
\setcounter{subsubsection}{0}
\setcounter{paragraph}{0}
\setcounter{subparagraph}{0}
\setcounter{figure}{6}
\setcounter{table}{1}
\setcounter{parentequation}{0}
\setcounter{float@type}{8}
\setcounter{subfigure}{0}
\setcounter{lofdepth}{1}
\setcounter{subtable}{0}
\setcounter{lotdepth}{1}
\setcounter{LT@tables}{0}
\setcounter{LT@chunks}{0}
\setcounter{nlinenum}{0}
\setcounter{ContinuedFloat}{0}
\setcounter{r@tfl@t}{0}
\setcounter{lstnumber}{1}
\setcounter{lstlisting}{0}
}
