\relax 
\@writefile{lof}{\contentsline {figure}{\numberline {\textbf  {6-7}}{\ignorespaces Diagrama de las capas que componen el frontend del ADT\relax }}{57}}
\newlabel{fig:001}{{\textbf  {6-7}}{57}}
\@writefile{toc}{\contentsline {section}{\numberline {6.3}Desarrollo del WebService}{57}}
\@writefile{toc}{\contentsline {subsection}{\numberline {6.3.1}Tecnolog\IeC {\'\i }as usadas y herramientas de desarrollo}{57}}
\newlabel{code:02}{{6.1}{59}}
\@writefile{lol}{\contentsline {lstlisting}{\numberline {6.1}Ejemplo de AJAX para actualizar informaci\IeC {\'o}n en tiempo real}{59}}
\newlabel{code:01}{{6.2}{60}}
\@writefile{lol}{\contentsline {lstlisting}{\numberline {6.2}M\IeC {\'e}todos do\_POST y do\_GET para el servidor}{60}}
\@writefile{toc}{\contentsline {subsection}{\numberline {6.3.2}Diagrama de funcionamiento del web service}{63}}
\@writefile{toc}{\contentsline {section}{\numberline {6.4}Desarrollo de la interf\IeC {\'a}z gr\IeC {\'a}fica}{63}}
\@writefile{toc}{\contentsline {subsection}{\numberline {6.4.1}Definici\IeC {\'o}n de historias de usuario}{63}}
\@writefile{lof}{\contentsline {figure}{\numberline {\textbf  {6-8}}{\ignorespaces Diagrama de flujo de obtenci\IeC {\'o}n de la informaci\IeC {\'o}n del ADT\relax }}{64}}
\newlabel{fig:000}{{\textbf  {6-8}}{64}}
\@writefile{lof}{\contentsline {figure}{\numberline {\textbf  {6-9}}{\ignorespaces Separaci\IeC {\'o}n en capas del c\IeC {\'o}digo\relax }}{64}}
\newlabel{fig:002}{{\textbf  {6-9}}{64}}
\@writefile{lof}{\contentsline {figure}{\numberline {\textbf  {6-10}}{\ignorespaces Historia de usuario minimalista\relax }}{66}}
\newlabel{fig:003}{{\textbf  {6-10}}{66}}
\@writefile{toc}{\contentsline {subsubsection}{\numberline {6.4.1.1}Diagrama de funcionamiento de la interfaz con el usuario}{66}}
\@writefile{lof}{\contentsline {figure}{\numberline {\textbf  {6-11}}{\ignorespaces Historia de usuario de un caso pr\IeC {\'a}ctico\relax }}{67}}
\newlabel{fig:004}{{\textbf  {6-11}}{67}}
\@writefile{lof}{\contentsline {figure}{\numberline {\textbf  {6-12}}{\ignorespaces Historia de usuario minimalista\relax }}{67}}
\newlabel{fig:005}{{\textbf  {6-12}}{67}}
\@setckpt{Cap/GI}{
\setcounter{page}{68}
\setcounter{equation}{0}
\setcounter{enumi}{0}
\setcounter{enumii}{0}
\setcounter{enumiii}{0}
\setcounter{enumiv}{0}
\setcounter{footnote}{5}
\setcounter{mpfootnote}{0}
\setcounter{part}{0}
\setcounter{chapter}{6}
\setcounter{section}{4}
\setcounter{subsection}{1}
\setcounter{subsubsection}{1}
\setcounter{paragraph}{0}
\setcounter{subparagraph}{0}
\setcounter{figure}{12}
\setcounter{table}{1}
\setcounter{parentequation}{0}
\setcounter{float@type}{8}
\setcounter{subfigure}{0}
\setcounter{lofdepth}{1}
\setcounter{subtable}{0}
\setcounter{lotdepth}{1}
\setcounter{LT@tables}{0}
\setcounter{LT@chunks}{0}
\setcounter{nlinenum}{0}
\setcounter{ContinuedFloat}{0}
\setcounter{r@tfl@t}{0}
\setcounter{lstnumber}{103}
\setcounter{lstlisting}{2}
}
