\relax 
\@writefile{toc}{\contentsline {chapter}{\numberline {7}An\IeC {\'a}lisis de resultados, posibles mejoras y trabajo futuro}{74}}
\@writefile{lof}{\addvspace {10\p@ }}
\@writefile{lot}{\addvspace {10\p@ }}
\@writefile{lol}{\addvspace {10\p@ }}
\@writefile{toc}{\contentsline {section}{\numberline {7.1}Resultados y verificaci\IeC {\'o}n de calidad}{74}}
\@writefile{toc}{\contentsline {section}{\numberline {7.2}Posibles mejoras}{74}}
\@writefile{toc}{\contentsline {subsection}{\numberline {7.2.1}Detecci\IeC {\'o}n autom\IeC {\'a}tica de sensores}{74}}
\@writefile{toc}{\contentsline {subsection}{\numberline {7.2.2}Inclusi\IeC {\'o}n de sensores remotos (WiFi, Bluetooth, RF)}{74}}
\@writefile{toc}{\contentsline {subsection}{\numberline {7.2.3}Inclusi\IeC {\'o}n de funcionalidad de Sniffer}{74}}
\@writefile{toc}{\contentsline {section}{\numberline {7.3}Trabajos futuros}{74}}
\@writefile{toc}{\contentsline {chapter}{\numberline {8}Conclusi\IeC {\'o}n}{75}}
\@writefile{lof}{\addvspace {10\p@ }}
\@writefile{lot}{\addvspace {10\p@ }}
\@writefile{lol}{\addvspace {10\p@ }}
\@setckpt{Cap/InEx}{
\setcounter{page}{76}
\setcounter{equation}{0}
\setcounter{enumi}{0}
\setcounter{enumii}{0}
\setcounter{enumiii}{0}
\setcounter{enumiv}{0}
\setcounter{footnote}{0}
\setcounter{mpfootnote}{0}
\setcounter{part}{0}
\setcounter{chapter}{8}
\setcounter{section}{0}
\setcounter{subsection}{0}
\setcounter{subsubsection}{0}
\setcounter{paragraph}{0}
\setcounter{subparagraph}{0}
\setcounter{figure}{0}
\setcounter{table}{0}
\setcounter{parentequation}{0}
\setcounter{float@type}{8}
\setcounter{subfigure}{0}
\setcounter{lofdepth}{1}
\setcounter{subtable}{0}
\setcounter{lotdepth}{1}
\setcounter{LT@tables}{0}
\setcounter{LT@chunks}{0}
\setcounter{nlinenum}{0}
\setcounter{ContinuedFloat}{0}
\setcounter{r@tfl@t}{0}
\setcounter{lstnumber}{103}
\setcounter{lstlisting}{0}
}
