\relax 
\@writefile{toc}{\contentsline {chapter}{\numberline {1}Introducci\IeC {\'o}n}{1}}
\@writefile{lof}{\addvspace {10\p@ }}
\@writefile{lot}{\addvspace {10\p@ }}
\@writefile{lol}{\addvspace {10\p@ }}
\@writefile{lof}{\contentsline {figure}{\numberline {\textbf  {1-1}}{\ignorespaces Esquema del entorno de desarrollo\relax }}{1}}
\@writefile{lof}{\contentsline {figure}{\numberline {\textbf  {1-2}}{\ignorespaces Ejemplo de un producto de industria cuyo QA se podr\IeC {\'\i }a automatizar (una tiqueadora no fiscal)\relax }}{3}}
\@writefile{lof}{\contentsline {figure}{\numberline {\textbf  {1-3}}{\ignorespaces Ejemplo de una m\IeC {\'a}qina CNC casera\relax }}{4}}
\@writefile{toc}{\contentsline {chapter}{\numberline {2}Evaluaci\IeC {\'o}n de las soluciones existentes y la propuesta}{5}}
\@writefile{lof}{\addvspace {10\p@ }}
\@writefile{lot}{\addvspace {10\p@ }}
\@writefile{lol}{\addvspace {10\p@ }}
\@writefile{toc}{\contentsline {section}{\numberline {2.1}Control}{5}}
\@writefile{toc}{\contentsline {section}{\numberline {2.2}Medici\IeC {\'o}n}{5}}
\@writefile{toc}{\contentsline {section}{\numberline {2.3}Interfaz gr\IeC {\'a}fica}{6}}
\@writefile{toc}{\contentsline {section}{\numberline {2.4}Integraci\IeC {\'o}n}{6}}
\@writefile{toc}{\contentsline {section}{\numberline {2.5}Costo de una soluci\IeC {\'o}n alternativa}{6}}
\@writefile{lof}{\contentsline {figure}{\numberline {\textbf  {2-1}}{\ignorespaces Conformaci\IeC {\'o}n esquem\IeC {\'a}tica del ADT\relax }}{7}}
\providecommand*\caption@xref[2]{\@setref\relax\@undefined{#1}}
\newlabel{adt_sch}{{\textbf  {2-1}}{7}}
\@writefile{toc}{\contentsline {section}{\numberline {2.6}Descripci\IeC {\'o}n de la soluci\IeC {\'o}n propuesta}{7}}
\@writefile{toc}{\contentsline {section}{\numberline {2.7}Componentes}{7}}
\@writefile{lof}{\contentsline {figure}{\numberline {\textbf  {2-2}}{\ignorespaces Diagrama de Comunicaci\IeC {\'o}n\relax }}{8}}
\newlabel{comm_diagram}{{\textbf  {2-2}}{8}}
\@writefile{lof}{\contentsline {figure}{\numberline {\textbf  {2-3}}{\ignorespaces Alternativa de configuraci\IeC {\'o}n de comunicaci\IeC {\'o}n\relax }}{8}}
\newlabel{comm_diagram_alt}{{\textbf  {2-3}}{8}}
\@writefile{lof}{\contentsline {figure}{\numberline {\textbf  {2-4}}{\ignorespaces Comunicaci\IeC {\'o}n inal\IeC {\'a}mbrica para (a) compartir un prototipo con varios Desarrolladores, (b) permitirle a un Host administrar una red de prototipos\relax }}{9}}
\newlabel{comm_diagram_wireless}{{\textbf  {2-4}}{9}}
\@writefile{toc}{\contentsline {chapter}{\numberline {3}Objetivo}{10}}
\@writefile{lof}{\addvspace {10\p@ }}
\@writefile{lot}{\addvspace {10\p@ }}
\@writefile{lol}{\addvspace {10\p@ }}
\@writefile{toc}{\contentsline {section}{\numberline {3.1}Objetivos espec\IeC {\'\i }ficos}{10}}
\@writefile{toc}{\contentsline {subsection}{\numberline {3.1.1}Capacidades m\IeC {\'\i }nimas}{10}}
\newlabel{cap_min}{{3.1.1}{10}}
\@writefile{toc}{\contentsline {subsection}{\numberline {3.1.2}Necesidades espec\IeC {\'\i }ficas}{10}}
\newlabel{nec_esp}{{3.1.2}{10}}
\@writefile{toc}{\contentsline {chapter}{\numberline {4}Dise\IeC {\~n}o preliminar}{12}}
\@writefile{lof}{\addvspace {10\p@ }}
\@writefile{lot}{\addvspace {10\p@ }}
\@writefile{lol}{\addvspace {10\p@ }}
\@writefile{toc}{\contentsline {section}{\numberline {4.1}Dise\IeC {\~n}o del hardware}{12}}
\@writefile{lof}{\contentsline {figure}{\numberline {\textbf  {4-1}}{\ignorespaces Diagrama del esquem\IeC {\'a}tico a desarrollar\relax }}{12}}
\newlabel{sch_diagram}{{\textbf  {4-1}}{12}}
\@writefile{toc}{\contentsline {section}{\numberline {4.2}Dise\IeC {\~n}o del software}{12}}
\@writefile{lof}{\contentsline {figure}{\numberline {\textbf  {4-2}}{\ignorespaces Diagrama de los bloques fundamentales del software a dise\IeC {\~n}ar para el HOST\relax }}{13}}
\newlabel{soft_diagram}{{\textbf  {4-2}}{13}}
\@writefile{toc}{\contentsline {section}{\numberline {4.3}Verificaci\IeC {\'o}n de la calidad y Mediciones}{13}}
\@writefile{toc}{\contentsline {section}{\numberline {4.4}Documentaci\IeC {\'o}n}{14}}
\@writefile{toc}{\contentsline {section}{\numberline {4.5}Alcance}{15}}
\@writefile{toc}{\contentsline {subsection}{\numberline {4.5.1}Requerimientos Funcionales}{15}}
\@writefile{toc}{\contentsline {subsection}{\numberline {4.5.2}Requerimientos opcionales}{15}}
\@writefile{toc}{\contentsline {section}{\numberline {4.6}Elaboraci\IeC {\'o}n de un an\IeC {\'a}lisis primitivo de costos}{16}}
\@writefile{toc}{\contentsline {section}{\numberline {4.7}Metodolog\IeC {\'\i }a}{17}}
\@setckpt{Cap/Int}{
\setcounter{page}{19}
\setcounter{equation}{0}
\setcounter{enumi}{0}
\setcounter{enumii}{0}
\setcounter{enumiii}{0}
\setcounter{enumiv}{0}
\setcounter{footnote}{0}
\setcounter{mpfootnote}{0}
\setcounter{part}{0}
\setcounter{chapter}{4}
\setcounter{section}{7}
\setcounter{subsection}{0}
\setcounter{subsubsection}{0}
\setcounter{paragraph}{0}
\setcounter{subparagraph}{0}
\setcounter{figure}{2}
\setcounter{table}{0}
\setcounter{parentequation}{0}
\setcounter{float@type}{8}
\setcounter{subfigure}{0}
\setcounter{lofdepth}{1}
\setcounter{subtable}{0}
\setcounter{lotdepth}{1}
\setcounter{LT@tables}{0}
\setcounter{LT@chunks}{0}
\setcounter{nlinenum}{0}
\setcounter{ContinuedFloat}{0}
\setcounter{r@tfl@t}{0}
\setcounter{lstnumber}{1}
\setcounter{lstlisting}{0}
}
