\relax 
\@writefile{toc}{\contentsline {chapter}{\numberline {6}Definici\IeC {\'o}n de los instrumentos y plataformas necesarias}{38}}
\@writefile{lof}{\addvspace {10\p@ }}
\@writefile{lot}{\addvspace {10\p@ }}
\@writefile{lol}{\addvspace {10\p@ }}
\@writefile{toc}{\contentsline {section}{\numberline {6.1}Elecci\IeC {\'o}n del hardware}{39}}
\@writefile{toc}{\contentsline {subsection}{\numberline {6.1.1}Elecci\IeC {\'o}n de los componentes}{39}}
\@writefile{lof}{\contentsline {figure}{\numberline {\textbf  {6-1}}{\ignorespaces Diagrama del circuito con el Raspberry Pi como pieza central\relax }}{40}}
\newlabel{RPi_diagram}{{\textbf  {6-1}}{40}}
\@writefile{toc}{\contentsline {subsection}{\numberline {6.1.2}Raspberry Pi}{41}}
\@writefile{lof}{\contentsline {figure}{\numberline {\textbf  {6-2}}{\ignorespaces Diagrama tentativo del sniffer.\relax }}{42}}
\newlabel{sniffer_diagram}{{\textbf  {6-2}}{42}}
\@writefile{toc}{\contentsline {section}{\numberline {6.2}Dise\IeC {\~n}o de la etapa de sniffer}{42}}
\@writefile{toc}{\contentsline {section}{\numberline {6.3}Elaboraci\IeC {\'o}n de un an\IeC {\'a}lisis primitivo de costos}{43}}
\@writefile{toc}{\contentsline {subsection}{\numberline {6.3.1}Estimaci\IeC {\'o}n del costo del producto final}{44}}
\@setckpt{Cap/IyPn}{
\setcounter{page}{45}
\setcounter{equation}{0}
\setcounter{enumi}{0}
\setcounter{enumii}{0}
\setcounter{enumiii}{0}
\setcounter{enumiv}{0}
\setcounter{footnote}{0}
\setcounter{mpfootnote}{0}
\setcounter{part}{0}
\setcounter{chapter}{6}
\setcounter{section}{3}
\setcounter{subsection}{1}
\setcounter{subsubsection}{0}
\setcounter{paragraph}{0}
\setcounter{subparagraph}{0}
\setcounter{figure}{2}
\setcounter{table}{0}
\setcounter{parentequation}{0}
\setcounter{float@type}{8}
\setcounter{subfigure}{0}
\setcounter{lofdepth}{1}
\setcounter{subtable}{0}
\setcounter{lotdepth}{1}
\setcounter{LT@tables}{0}
\setcounter{LT@chunks}{0}
\setcounter{nlinenum}{0}
\setcounter{ContinuedFloat}{0}
\setcounter{r@tfl@t}{0}
\setcounter{lstnumber}{1}
\setcounter{lstlisting}{0}
}
