\relax 
\@writefile{toc}{\contentsline {chapter}{\numberline {6}Dise\IeC {\~n}o de una Herramienta Adaptativa de Desarrollo}{41}}
\@writefile{lof}{\addvspace {10\p@ }}
\@writefile{lot}{\addvspace {10\p@ }}
\@writefile{lol}{\addvspace {10\p@ }}
\@writefile{toc}{\contentsline {section}{\numberline {6.1}Definici\IeC {\'o}n de las metodolog\IeC {\'\i }as, tecnolog\IeC {\'\i }as y hardware utilizados}{42}}
\@writefile{toc}{\contentsline {subsection}{\numberline {6.1.1}Elecci\IeC {\'o}n de los componentes}{43}}
\@writefile{lof}{\contentsline {figure}{\numberline {\textbf  {6-1}}{\ignorespaces Diagrama del circuito con el Raspberry Pi como pieza central\relax }}{44}}
\newlabel{RPi_diagram}{{\textbf  {6-1}}{44}}
\@writefile{toc}{\contentsline {subsection}{\numberline {6.1.2}El Raspberry Pi}{45}}
\@writefile{lof}{\contentsline {figure}{\numberline {\textbf  {6-2}}{\ignorespaces Raspberry Pi\relax }}{46}}
\@writefile{lof}{\contentsline {figure}{\numberline {\textbf  {6-3}}{\ignorespaces Arduino UNO\relax }}{48}}
\@writefile{toc}{\contentsline {subsection}{\numberline {6.1.3}El Arduino como interfaz con los sensores}{48}}
\@writefile{lof}{\contentsline {figure}{\numberline {\textbf  {6-4}}{\ignorespaces Diagrama del contenido de la interf\IeC {\'a}z gr\IeC {\'a}fica.\relax }}{50}}
\newlabel{GIDiag}{{\textbf  {6-4}}{50}}
\@writefile{toc}{\contentsline {subsection}{\numberline {6.1.4}Webservice e Interf\IeC {\'a}z gr\IeC {\'a}fica}{50}}
\@writefile{toc}{\contentsline {subsection}{\numberline {6.1.5}Metodolog\IeC {\'\i }a TDD (desarrollo dirigido por tests)}{51}}
\@writefile{lof}{\contentsline {figure}{\numberline {\textbf  {6-5}}{\ignorespaces Diagrama de Flujo de la metodolog\IeC {\'\i }a TDD\relax }}{51}}
\@setckpt{Cap/MTyH}{
\setcounter{page}{54}
\setcounter{equation}{0}
\setcounter{enumi}{0}
\setcounter{enumii}{0}
\setcounter{enumiii}{0}
\setcounter{enumiv}{0}
\setcounter{footnote}{1}
\setcounter{mpfootnote}{0}
\setcounter{part}{0}
\setcounter{chapter}{6}
\setcounter{section}{1}
\setcounter{subsection}{5}
\setcounter{subsubsection}{0}
\setcounter{paragraph}{0}
\setcounter{subparagraph}{0}
\setcounter{figure}{5}
\setcounter{table}{0}
\setcounter{parentequation}{0}
\setcounter{float@type}{8}
\setcounter{subfigure}{0}
\setcounter{lofdepth}{1}
\setcounter{subtable}{0}
\setcounter{lotdepth}{1}
\setcounter{LT@tables}{0}
\setcounter{LT@chunks}{0}
\setcounter{nlinenum}{0}
\setcounter{ContinuedFloat}{0}
\setcounter{r@tfl@t}{0}
\setcounter{lstnumber}{1}
\setcounter{lstlisting}{0}
}
