\relax 
\@writefile{toc}{\contentsline {chapter}{\numberline {A}Anexo: Bancos de prueba}{43}}
\@writefile{lof}{\addvspace {10\p@ }}
\@writefile{lot}{\addvspace {10\p@ }}
\@writefile{lol}{\addvspace {10\p@ }}
\newlabel{AnexoA}{{A}{43}}
\@writefile{toc}{\contentsline {section}{\numberline {A.1}Interf\IeC {\'a}z gr\IeC {\'a}fica}{43}}
\@writefile{toc}{\contentsline {section}{\numberline {A.2}M\IeC {\'o}dulo de control y sensado}{43}}
\@writefile{toc}{\contentsline {section}{\numberline {A.3}WebService}{43}}
\@writefile{toc}{\contentsline {chapter}{\numberline {B}Anexo: Documentaci\IeC {\'o}n del usuario}{44}}
\@writefile{lof}{\addvspace {10\p@ }}
\@writefile{lot}{\addvspace {10\p@ }}
\@writefile{lol}{\addvspace {10\p@ }}
\newlabel{AnexoB}{{B}{44}}
\@writefile{toc}{\contentsline {section}{\numberline {B.1}Manual de usuario}{44}}
\@writefile{toc}{\contentsline {section}{\numberline {B.2}Ejemplos pr\IeC {\'a}ctico: Configuraci\IeC {\'o}n de un sensor y un actuador}{44}}
\@writefile{toc}{\contentsline {section}{\numberline {B.3}Documentaci\IeC {\'o}n presentada en el Web Service}{44}}
\@writefile{toc}{\contentsline {chapter}{\numberline {C}Anexo: Documentaci\IeC {\'o}n t\IeC {\'e}cnica}{45}}
\@writefile{lof}{\addvspace {10\p@ }}
\@writefile{lot}{\addvspace {10\p@ }}
\@writefile{lol}{\addvspace {10\p@ }}
\newlabel{AnexoC}{{C}{45}}
\@writefile{toc}{\contentsline {section}{\numberline {C.1}Manual t\IeC {\'e}cnico}{45}}
\@writefile{toc}{\contentsline {section}{\numberline {C.2}Ejemplo pr\IeC {\'a}ctico: Como agregar un modelo de sensor}{45}}
\@writefile{toc}{\contentsline {chapter}{\numberline {D}Anexo: Incluci\IeC {\'o}n de funcionalidad de sniffer (Preguntar)}{46}}
\@writefile{lof}{\addvspace {10\p@ }}
\@writefile{lot}{\addvspace {10\p@ }}
\@writefile{lol}{\addvspace {10\p@ }}
\@setckpt{Anexos/Anexos_tentativos}{
\setcounter{page}{47}
\setcounter{equation}{0}
\setcounter{enumi}{0}
\setcounter{enumii}{0}
\setcounter{enumiii}{0}
\setcounter{enumiv}{0}
\setcounter{footnote}{0}
\setcounter{mpfootnote}{0}
\setcounter{part}{0}
\setcounter{chapter}{4}
\setcounter{section}{0}
\setcounter{subsection}{0}
\setcounter{subsubsection}{0}
\setcounter{paragraph}{0}
\setcounter{subparagraph}{0}
\setcounter{figure}{0}
\setcounter{table}{0}
\setcounter{parentequation}{0}
\setcounter{float@type}{8}
\setcounter{subfigure}{0}
\setcounter{lofdepth}{1}
\setcounter{subtable}{0}
\setcounter{lotdepth}{1}
\setcounter{LT@tables}{0}
\setcounter{LT@chunks}{0}
\setcounter{nlinenum}{0}
\setcounter{ContinuedFloat}{0}
\setcounter{r@tfl@t}{0}
\setcounter{lstnumber}{1}
\setcounter{lstlisting}{0}
}
