\relax 
\@writefile{toc}{\contentsline {chapter}{\numberline {5}An\IeC {\'a}lisis de mercado}{17}}
\@writefile{lof}{\addvspace {10\p@ }}
\@writefile{lot}{\addvspace {10\p@ }}
\@writefile{lol}{\addvspace {10\p@ }}
\@writefile{toc}{\contentsline {section}{\numberline {5.1}Definici\IeC {\'o}n del producto}{17}}
\@writefile{toc}{\contentsline {subsection}{\numberline {5.1.1}Definici\IeC {\'o}n de las caracter\IeC {\'\i }sticas centrales}{17}}
\@writefile{toc}{\contentsline {subsection}{\numberline {5.1.2} Necesidades de los clientes/consumidores que satisface}{18}}
\@writefile{toc}{\contentsline {section}{\numberline {5.2} Beneficio para los clientes/consumidores}{18}}
\@writefile{toc}{\contentsline {section}{\numberline {5.3}Definici\IeC {\'o}n del producto ampliado}{19}}
\@writefile{toc}{\contentsline {section}{\numberline {5.4}An\IeC {\'a}lisis competitivo}{19}}
\@writefile{toc}{\contentsline {section}{\numberline {5.5}Competidores}{23}}
\@writefile{toc}{\contentsline {section}{\numberline {5.6}Estrategia competitiva y plan de acci\IeC {\'o}n}{27}}
\@writefile{lot}{\contentsline {table}{\numberline {\textbf  {5-1}}{\ignorespaces Ingreso esperado los primeros 5 a\IeC {\~n}os.\relax }}{33}}
\newlabel{exp_income}{{\textbf  {5-1}}{33}}
\@writefile{toc}{\contentsline {section}{\numberline {5.7}Plan de negocios}{33}}
\@writefile{lot}{\contentsline {table}{\numberline {\textbf  {5-2}}{\ignorespaces Inversiones y amortizacioness.\relax }}{34}}
\newlabel{inv_amort}{{\textbf  {5-2}}{34}}
\@writefile{lot}{\contentsline {table}{\numberline {\textbf  {5-3}}{\ignorespaces Ingresos esperados los primeros 5 a\IeC {\~n}os en detalle.\relax }}{36}}
\newlabel{exp_inc_complete}{{\textbf  {5-3}}{36}}
\@writefile{lot}{\contentsline {table}{\numberline {\textbf  {5-4}}{\ignorespaces Financiaci\IeC {\'o}n durante los primeros 5 a\IeC {\~n}os.\relax }}{36}}
\newlabel{financiacion}{{\textbf  {5-4}}{36}}
\@writefile{lot}{\contentsline {table}{\numberline {\textbf  {5-5}}{\ignorespaces Flujo de fondos durante los primeros 5 a\IeC {\~n}os.\relax }}{37}}
\newlabel{flujo_fondos}{{\textbf  {5-5}}{37}}
\@writefile{lot}{\contentsline {table}{\numberline {\textbf  {5-6}}{\ignorespaces Cuadro de resultados.\relax }}{37}}
\newlabel{result_tbl}{{\textbf  {5-6}}{37}}
\@writefile{lot}{\contentsline {table}{\numberline {\textbf  {5-7}}{\ignorespaces Punto de equilibrio.\relax }}{38}}
\newlabel{BEP}{{\textbf  {5-7}}{38}}
\@setckpt{Cap/AM}{
\setcounter{page}{39}
\setcounter{equation}{0}
\setcounter{enumi}{0}
\setcounter{enumii}{0}
\setcounter{enumiii}{0}
\setcounter{enumiv}{0}
\setcounter{footnote}{1}
\setcounter{mpfootnote}{0}
\setcounter{part}{0}
\setcounter{chapter}{5}
\setcounter{section}{7}
\setcounter{subsection}{0}
\setcounter{subsubsection}{0}
\setcounter{paragraph}{0}
\setcounter{subparagraph}{0}
\setcounter{figure}{0}
\setcounter{table}{7}
\setcounter{parentequation}{0}
\setcounter{float@type}{8}
\setcounter{subfigure}{0}
\setcounter{lofdepth}{1}
\setcounter{subtable}{0}
\setcounter{lotdepth}{1}
\setcounter{LT@tables}{0}
\setcounter{LT@chunks}{0}
\setcounter{nlinenum}{0}
\setcounter{ContinuedFloat}{0}
\setcounter{r@tfl@t}{0}
\setcounter{lstnumber}{1}
\setcounter{lstlisting}{0}
}
