\relax 
\@writefile{toc}{\contentsline {chapter}{\numberline {6}Dise\IeC {\~n}o de una Herramienta Adaptativa de Desarrollo}{39}}
\@writefile{lof}{\addvspace {10\p@ }}
\@writefile{lot}{\addvspace {10\p@ }}
\@writefile{lol}{\addvspace {10\p@ }}
\@writefile{toc}{\contentsline {section}{\numberline {6.1}Definici\IeC {\'o}n de las metodolog\IeC {\'\i }as, tecnolog\IeC {\'\i }as y hardware utilizados}{40}}
\@writefile{toc}{\contentsline {subsection}{\numberline {6.1.1}Elecci\IeC {\'o}n de los componentes}{40}}
\@writefile{toc}{\contentsline {subsection}{\numberline {6.1.2}El Raspberry Pi}{40}}
\@writefile{toc}{\contentsline {subsection}{\numberline {6.1.3}El Arduino como interfaz con los sensores}{40}}
\@writefile{toc}{\contentsline {subsection}{\numberline {6.1.4}Webservice e Interf\IeC {\'a}z gr\IeC {\'a}fica}{40}}
\@writefile{toc}{\contentsline {subsection}{\numberline {6.1.5}Diagrama de la herramienta}{40}}
\@writefile{toc}{\contentsline {subsection}{\numberline {6.1.6}Metodolog\IeC {\'\i }a TDD (desarrollo dirigido por tests)}{40}}
\@writefile{toc}{\contentsline {section}{\numberline {6.2}Desarrollo del sistema de control y mediciones}{40}}
\@writefile{toc}{\contentsline {subsection}{\numberline {6.2.1}Elecci\IeC {\'o}n del numero y tipo de puertos}{40}}
\@writefile{toc}{\contentsline {subsection}{\numberline {6.2.2}Esquema de los puertos}{40}}
\@writefile{toc}{\contentsline {subsubsection}{\numberline {6.2.2.1}Puerto de entrada digital}{40}}
\@writefile{toc}{\contentsline {subsubsection}{\numberline {6.2.2.2}Puerto de entrada anal\IeC {\'o}gico}{40}}
\@writefile{toc}{\contentsline {subsubsection}{\numberline {6.2.2.3}Puerto de salida digital}{40}}
\@writefile{toc}{\contentsline {subsubsection}{\numberline {6.2.2.4}Puerto de salida digital: llave de alta potencia}{40}}
\@writefile{toc}{\contentsline {subsection}{\numberline {6.2.3}Diagrama de funcionamiento del circuito de control}{40}}
\@writefile{toc}{\contentsline {section}{\numberline {6.3}Desarrollo del WebService}{40}}
\@writefile{toc}{\contentsline {subsection}{\numberline {6.3.1}Tecnolog\IeC {\'\i }as usadas y herramientas de desarrollo}{40}}
\@writefile{toc}{\contentsline {subsection}{\numberline {6.3.2}Diagrama de funcionamiento del web service}{40}}
\@writefile{toc}{\contentsline {section}{\numberline {6.4}Desarrollo de la interf\IeC {\'a}z gr\IeC {\'a}fica}{40}}
\@writefile{toc}{\contentsline {subsection}{\numberline {6.4.1}Tecnolog\IeC {\'\i }as usadas y herramientas visuales}{40}}
\@writefile{toc}{\contentsline {subsubsection}{\numberline {6.4.1.1}HTML5}{40}}
\@writefile{toc}{\contentsline {subsubsection}{\numberline {6.4.1.2}JavaScript y AJAX}{40}}
\@writefile{toc}{\contentsline {subsubsection}{\numberline {6.4.1.3}CSS}{40}}
\@writefile{toc}{\contentsline {subsection}{\numberline {6.4.2}Definici\IeC {\'o}n de una historia de usuario patr\IeC {\'o}n}{40}}
\@writefile{toc}{\contentsline {subsubsection}{\numberline {6.4.2.1}Diagrama de flujo de la interf\IeC {\'a}z con el usuario}{40}}
\@writefile{toc}{\contentsline {subsubsection}{\numberline {6.4.2.2}Simplificaci\IeC {\'o}n de la interf\IeC {\'a}z gr\IeC {\'a}fica}{40}}
\@writefile{toc}{\contentsline {subsection}{\numberline {6.4.3}Diagrama de funcionamiento de la interf\IeC {\'a}z fr\IeC {\'a}fica}{40}}
\@writefile{toc}{\contentsline {section}{\numberline {6.5}Integraci\IeC {\'o}n de todos los componentes}{40}}
\@writefile{toc}{\contentsline {subsection}{\numberline {6.5.1}Comunicaci\IeC {\'o}n entre el Raspberry Pi y el Arduino}{40}}
\@writefile{toc}{\contentsline {subsubsection}{\numberline {6.5.1.1}Desarrollando una interf\IeC {\'a}z para el puerto serial}{40}}
\@writefile{toc}{\contentsline {subsubsection}{\numberline {6.5.1.2}Velociadades de transferencia de datos}{40}}
\@writefile{toc}{\contentsline {subsection}{\numberline {6.5.2}Alimentaci\IeC {\'o}n de los componenetes}{40}}
\@writefile{toc}{\contentsline {subsection}{\numberline {6.5.3}Armado del ADT}{40}}
\@writefile{toc}{\contentsline {subsubsection}{\numberline {6.5.3.1}Definici\IeC {\'o}n de las dimensi\IeC {\'o}nes y dise\IeC {\~n}o de un contenedor}{40}}
\@writefile{toc}{\contentsline {subsubsection}{\numberline {6.5.3.2}Puertos del ADT}{40}}
\@writefile{toc}{\contentsline {chapter}{\numberline {7}An\IeC {\'a}lisis de resultados, posibles mejoras y trabajo futuro}{41}}
\@writefile{lof}{\addvspace {10\p@ }}
\@writefile{lot}{\addvspace {10\p@ }}
\@writefile{lol}{\addvspace {10\p@ }}
\@writefile{toc}{\contentsline {section}{\numberline {7.1}Resultados y verificaci\IeC {\'o}n de calidad}{41}}
\@writefile{toc}{\contentsline {section}{\numberline {7.2}Posibles mejoras}{41}}
\@writefile{toc}{\contentsline {subsection}{\numberline {7.2.1}Detecci\IeC {\'o}n autom\IeC {\'a}tica de sensores}{41}}
\@writefile{toc}{\contentsline {subsection}{\numberline {7.2.2}Incluci\IeC {\'o}n de sensores remotos (WiFi, Bluetooth, RF)}{41}}
\@writefile{toc}{\contentsline {subsection}{\numberline {7.2.3}Incluci\IeC {\'o}n de funcionalidad de Sniffer}{41}}
\@writefile{toc}{\contentsline {section}{\numberline {7.3}Trabajos futuros}{41}}
\@writefile{toc}{\contentsline {chapter}{\numberline {8}Conclusi\IeC {\'o}n}{42}}
\@writefile{lof}{\addvspace {10\p@ }}
\@writefile{lot}{\addvspace {10\p@ }}
\@writefile{lol}{\addvspace {10\p@ }}
\@setckpt{Cap/InEx}{
\setcounter{page}{43}
\setcounter{equation}{0}
\setcounter{enumi}{0}
\setcounter{enumii}{0}
\setcounter{enumiii}{0}
\setcounter{enumiv}{0}
\setcounter{footnote}{0}
\setcounter{mpfootnote}{0}
\setcounter{part}{0}
\setcounter{chapter}{8}
\setcounter{section}{0}
\setcounter{subsection}{0}
\setcounter{subsubsection}{0}
\setcounter{paragraph}{0}
\setcounter{subparagraph}{0}
\setcounter{figure}{0}
\setcounter{table}{0}
\setcounter{parentequation}{0}
\setcounter{float@type}{8}
\setcounter{subfigure}{0}
\setcounter{lofdepth}{1}
\setcounter{subtable}{0}
\setcounter{lotdepth}{1}
\setcounter{LT@tables}{0}
\setcounter{LT@chunks}{0}
\setcounter{nlinenum}{0}
\setcounter{ContinuedFloat}{0}
\setcounter{r@tfl@t}{0}
\setcounter{lstnumber}{1}
\setcounter{lstlisting}{0}
}
