\relax 
\@writefile{toc}{\contentsline {chapter}{\numberline {1}Introducci\IeC {\'o}n}{1}}
\@writefile{lof}{\addvspace {10\p@ }}
\@writefile{lot}{\addvspace {10\p@ }}
\@writefile{lol}{\addvspace {10\p@ }}
\@writefile{lof}{\contentsline {figure}{\numberline {\textbf  {1-1}}{\ignorespaces Esquema del entorno de desarrollo\relax }}{1}}
\@writefile{toc}{\contentsline {chapter}{\numberline {2}Evaluaci\IeC {\'o}n de las soluciones existentes y la propuesta}{3}}
\@writefile{lof}{\addvspace {10\p@ }}
\@writefile{lot}{\addvspace {10\p@ }}
\@writefile{lol}{\addvspace {10\p@ }}
\@writefile{toc}{\contentsline {section}{\numberline {2.1}Control}{3}}
\@writefile{toc}{\contentsline {section}{\numberline {2.2}Medici\IeC {\'o}n}{3}}
\@writefile{toc}{\contentsline {section}{\numberline {2.3}Interfaz gr\IeC {\'a}fica}{4}}
\@writefile{toc}{\contentsline {section}{\numberline {2.4}Integraci\IeC {\'o}n}{4}}
\@writefile{toc}{\contentsline {section}{\numberline {2.5}Costo de una soluci\IeC {\'o}n alternativa}{4}}
\@writefile{lof}{\contentsline {figure}{\numberline {\textbf  {2-1}}{\ignorespaces Conformaci\IeC {\'o}n esquem\IeC {\'a}tica del ADT\relax }}{5}}
\providecommand*\caption@xref[2]{\@setref\relax\@undefined{#1}}
\newlabel{adt_sch}{{\textbf  {2-1}}{5}}
\@writefile{toc}{\contentsline {section}{\numberline {2.6}Descripci\IeC {\'o}n de la soluci\IeC {\'o}n propuesta}{5}}
\@writefile{toc}{\contentsline {section}{\numberline {2.7}Componentes}{5}}
\@writefile{lof}{\contentsline {figure}{\numberline {\textbf  {2-2}}{\ignorespaces Diagrama de Comunicaci\IeC {\'o}n\relax }}{6}}
\newlabel{comm_diagram}{{\textbf  {2-2}}{6}}
\@writefile{lof}{\contentsline {figure}{\numberline {\textbf  {2-3}}{\ignorespaces Alternativa de configuraci\IeC {\'o}n de comunicaci\IeC {\'o}n\relax }}{6}}
\newlabel{comm_diagram_alt}{{\textbf  {2-3}}{6}}
\@writefile{lof}{\contentsline {figure}{\numberline {\textbf  {2-4}}{\ignorespaces Comunicaci\IeC {\'o}n inal\IeC {\'a}mbrica para (a) compartir un prototipo con varios Desarrolladores, (b) permitirle a un Host administrar una red de prototipos\relax }}{7}}
\newlabel{comm_diagram_wireless}{{\textbf  {2-4}}{7}}
\@writefile{toc}{\contentsline {chapter}{\numberline {3}Objetivo}{8}}
\@writefile{lof}{\addvspace {10\p@ }}
\@writefile{lot}{\addvspace {10\p@ }}
\@writefile{lol}{\addvspace {10\p@ }}
\@writefile{toc}{\contentsline {section}{\numberline {3.1}Objetivos espec\IeC {\'\i }ficos}{8}}
\@writefile{toc}{\contentsline {subsection}{\numberline {3.1.1}Capacidades m\IeC {\'\i }nimas}{8}}
\newlabel{cap_min}{{3.1.1}{8}}
\@writefile{toc}{\contentsline {subsection}{\numberline {3.1.2}Necesidades espec\IeC {\'\i }ficas}{8}}
\newlabel{nec_esp}{{3.1.2}{8}}
\@writefile{toc}{\contentsline {chapter}{\numberline {4}Disea\IeC {\~n}o preliminar}{10}}
\@writefile{lof}{\addvspace {10\p@ }}
\@writefile{lot}{\addvspace {10\p@ }}
\@writefile{lol}{\addvspace {10\p@ }}
\@writefile{toc}{\contentsline {section}{\numberline {4.1}Dise\IeC {\~n}o del hardware}{10}}
\@writefile{lof}{\contentsline {figure}{\numberline {\textbf  {4-1}}{\ignorespaces Diagrama del esquem\IeC {\'a}tico a desarrollar\relax }}{10}}
\newlabel{sch_diagram}{{\textbf  {4-1}}{10}}
\@writefile{toc}{\contentsline {section}{\numberline {4.2}Dise\IeC {\~n}o del software}{10}}
\@writefile{lof}{\contentsline {figure}{\numberline {\textbf  {4-2}}{\ignorespaces Diagrama de los bloques fundamentales del software a dise\IeC {\~n}ar para el HOST\relax }}{11}}
\newlabel{soft_diagram}{{\textbf  {4-2}}{11}}
\@writefile{toc}{\contentsline {section}{\numberline {4.3}Verificaci\IeC {\'o}n de la calidad y Mediciones}{11}}
\@writefile{toc}{\contentsline {section}{\numberline {4.4}Documentaci\IeC {\'o}n}{12}}
\@writefile{toc}{\contentsline {section}{\numberline {4.5}Alcance}{13}}
\@writefile{toc}{\contentsline {subsection}{\numberline {4.5.1}Requerimientos Funcionales}{13}}
\@writefile{toc}{\contentsline {subsection}{\numberline {4.5.2}Requerimientos opcionales}{13}}
\@writefile{toc}{\contentsline {section}{\numberline {4.6}Elaboraci\IeC {\'o}n de un an\IeC {\'a}lisis primitivo de costos}{14}}
\@writefile{toc}{\contentsline {section}{\numberline {4.7}Metodolog\IeC {\'\i }a}{15}}
\@setckpt{Cap/Int}{
\setcounter{page}{17}
\setcounter{equation}{0}
\setcounter{enumi}{0}
\setcounter{enumii}{0}
\setcounter{enumiii}{0}
\setcounter{enumiv}{0}
\setcounter{footnote}{0}
\setcounter{mpfootnote}{0}
\setcounter{part}{0}
\setcounter{chapter}{4}
\setcounter{section}{7}
\setcounter{subsection}{0}
\setcounter{subsubsection}{0}
\setcounter{paragraph}{0}
\setcounter{subparagraph}{0}
\setcounter{figure}{2}
\setcounter{table}{0}
\setcounter{parentequation}{0}
\setcounter{float@type}{8}
\setcounter{subfigure}{0}
\setcounter{lofdepth}{1}
\setcounter{subtable}{0}
\setcounter{lotdepth}{1}
\setcounter{LT@tables}{0}
\setcounter{LT@chunks}{0}
\setcounter{nlinenum}{0}
\setcounter{ContinuedFloat}{0}
\setcounter{r@tfl@t}{0}
\setcounter{lstnumber}{1}
\setcounter{lstlisting}{0}
}
