\relax 
\@writefile{toc}{\contentsline {chapter}{\numberline {8}Redise\IeC {\~n}o del Producto}{46}}
\@writefile{lof}{\addvspace {10\p@ }}
\@writefile{lot}{\addvspace {10\p@ }}
\@writefile{lol}{\addvspace {10\p@ }}
\@writefile{toc}{\contentsline {section}{\numberline {8.1}An\IeC {\'a}lisis de las deficiencias en el producto final}{46}}
\@writefile{toc}{\contentsline {section}{\numberline {8.2}Cambios en el producto final}{46}}
\@writefile{toc}{\contentsline {subsection}{\numberline {8.2.1}Separaci\IeC {\'o}n del sniffer}{47}}
\@writefile{toc}{\contentsline {subsection}{\numberline {8.2.2}Transformaci\IeC {\'o}n en API}{47}}
\@writefile{lof}{\contentsline {figure}{\numberline {\textbf  {8-1}}{\ignorespaces Diagrama de funcionamiento de una API dentro de ADT.\relax }}{48}}
\newlabel{adt_api_diag}{{\textbf  {8-1}}{48}}
\@writefile{toc}{\contentsline {section}{\numberline {8.3}Redefinici\IeC {\'o}n de las especificaciones}{48}}
\@writefile{toc}{\contentsline {section}{\numberline {8.4}Comentarios Finales}{49}}
\@setckpt{Cap/RDsg}{
\setcounter{page}{51}
\setcounter{equation}{0}
\setcounter{enumi}{0}
\setcounter{enumii}{0}
\setcounter{enumiii}{0}
\setcounter{enumiv}{0}
\setcounter{footnote}{1}
\setcounter{mpfootnote}{0}
\setcounter{part}{0}
\setcounter{chapter}{8}
\setcounter{section}{4}
\setcounter{subsection}{0}
\setcounter{subsubsection}{0}
\setcounter{paragraph}{0}
\setcounter{subparagraph}{0}
\setcounter{figure}{1}
\setcounter{table}{0}
\setcounter{parentequation}{0}
\setcounter{float@type}{8}
\setcounter{subfigure}{0}
\setcounter{lofdepth}{1}
\setcounter{subtable}{0}
\setcounter{lotdepth}{1}
\setcounter{LT@tables}{0}
\setcounter{LT@chunks}{0}
\setcounter{nlinenum}{0}
\setcounter{ContinuedFloat}{0}
\setcounter{r@tfl@t}{0}
\setcounter{lstnumber}{1}
\setcounter{lstlisting}{0}
}
