\relax 
\@writefile{toc}{\contentsline {chapter}{\numberline {A}Anexo: Bancos de prueba}{76}}
\@writefile{lof}{\addvspace {10\p@ }}
\@writefile{lot}{\addvspace {10\p@ }}
\@writefile{lol}{\addvspace {10\p@ }}
\newlabel{AnexoA}{{A}{76}}
\@writefile{toc}{\contentsline {section}{\numberline {A.1}Interf\IeC {\'a}z gr\IeC {\'a}fica}{76}}
\@writefile{toc}{\contentsline {section}{\numberline {A.2}M\IeC {\'o}dulo de control y sensado}{76}}
\@writefile{toc}{\contentsline {section}{\numberline {A.3}WebService}{76}}
\@writefile{toc}{\contentsline {chapter}{\numberline {B}Anexo: Documentaci\IeC {\'o}n del usuario}{77}}
\@writefile{lof}{\addvspace {10\p@ }}
\@writefile{lot}{\addvspace {10\p@ }}
\@writefile{lol}{\addvspace {10\p@ }}
\newlabel{AnexoB}{{B}{77}}
\@writefile{toc}{\contentsline {section}{\numberline {B.1}Manual de usuario}{77}}
\@writefile{toc}{\contentsline {section}{\numberline {B.2}Ejemplos pr\IeC {\'a}ctico: Configuraci\IeC {\'o}n de un sensor y un actuador}{77}}
\@writefile{toc}{\contentsline {section}{\numberline {B.3}Documentaci\IeC {\'o}n presentada en el Web Service}{77}}
\@writefile{toc}{\contentsline {chapter}{\numberline {C}Anexo: Documentaci\IeC {\'o}n t\IeC {\'e}cnica}{78}}
\@writefile{lof}{\addvspace {10\p@ }}
\@writefile{lot}{\addvspace {10\p@ }}
\@writefile{lol}{\addvspace {10\p@ }}
\newlabel{AnexoC}{{C}{78}}
\@writefile{toc}{\contentsline {section}{\numberline {C.1}Manual t\IeC {\'e}cnico}{78}}
\@writefile{toc}{\contentsline {section}{\numberline {C.2}Ejemplo pr\IeC {\'a}ctico: Como agregar un modelo de sensor}{78}}
\@writefile{toc}{\contentsline {chapter}{\numberline {D}Anexo: Incluci\IeC {\'o}n de funcionalidad de sniffer}{79}}
\@writefile{lof}{\addvspace {10\p@ }}
\@writefile{lot}{\addvspace {10\p@ }}
\@writefile{lol}{\addvspace {10\p@ }}
\@writefile{toc}{\contentsline {chapter}{\numberline {E}Anexo: C\IeC {\'o}digo}{80}}
\@writefile{lof}{\addvspace {10\p@ }}
\@writefile{lot}{\addvspace {10\p@ }}
\@writefile{lol}{\addvspace {10\p@ }}
\newlabel{AnexoD}{{E}{80}}
\@setckpt{Anexos/Anexos_tentativos}{
\setcounter{page}{81}
\setcounter{equation}{0}
\setcounter{enumi}{0}
\setcounter{enumii}{0}
\setcounter{enumiii}{0}
\setcounter{enumiv}{0}
\setcounter{footnote}{0}
\setcounter{mpfootnote}{0}
\setcounter{part}{0}
\setcounter{chapter}{5}
\setcounter{section}{0}
\setcounter{subsection}{0}
\setcounter{subsubsection}{0}
\setcounter{paragraph}{0}
\setcounter{subparagraph}{0}
\setcounter{figure}{0}
\setcounter{table}{0}
\setcounter{parentequation}{0}
\setcounter{float@type}{8}
\setcounter{subfigure}{0}
\setcounter{lofdepth}{1}
\setcounter{subtable}{0}
\setcounter{lotdepth}{1}
\setcounter{LT@tables}{0}
\setcounter{LT@chunks}{0}
\setcounter{nlinenum}{0}
\setcounter{ContinuedFloat}{0}
\setcounter{r@tfl@t}{0}
\setcounter{lstnumber}{103}
\setcounter{lstlisting}{0}
}
