\relax 
\@writefile{toc}{\contentsline {chapter}{\numberline {A}Anexo: Bancos de prueba del Sniffer}{51}}
\@writefile{lof}{\addvspace {10\p@ }}
\@writefile{lot}{\addvspace {10\p@ }}
\@writefile{lol}{\addvspace {10\p@ }}
\newlabel{AnexoA}{{A}{51}}
\@writefile{toc}{\contentsline {section}{\numberline {A.1}Banco de pruebas}{51}}
\@writefile{lof}{\contentsline {figure}{\numberline {\textbf  {A-1}}{\ignorespaces \relax \fontsize  {10.95}{13.6}\selectfont  \abovedisplayskip 11\p@ plus3\p@ minus6\p@ \abovedisplayshortskip \z@ plus3\p@ \belowdisplayshortskip 6.5\p@ plus3.5\p@ minus3\p@ \def \leftmargin \leftmargini \parsep 5\p@ plus2.5\p@ minus\p@ \topsep 10\p@ plus4\p@ minus6\p@ \itemsep 5\p@ plus2.5\p@ minus\p@ {\leftmargin \leftmargini \topsep 9\p@ plus3\p@ minus5\p@ \parsep 4.5\p@ plus2\p@ minus\p@ \itemsep \parsep }\belowdisplayskip \abovedisplayskip \add@extra@listi {sml}Cables Manhattan utilizados en las pruebas del Sniffer.\relax }}{51}}
\newlabel{cables_man}{{\textbf  {A-1}}{51}}
\@writefile{lof}{\contentsline {figure}{\numberline {\textbf  {A-2}}{\ignorespaces \relax \fontsize  {10.95}{13.6}\selectfont  \abovedisplayskip 11\p@ plus3\p@ minus6\p@ \abovedisplayshortskip \z@ plus3\p@ \belowdisplayshortskip 6.5\p@ plus3.5\p@ minus3\p@ \def \leftmargin \leftmargini \parsep 5\p@ plus2.5\p@ minus\p@ \topsep 10\p@ plus4\p@ minus6\p@ \itemsep 5\p@ plus2.5\p@ minus\p@ {\leftmargin \leftmargini \topsep 9\p@ plus3\p@ minus5\p@ \parsep 4.5\p@ plus2\p@ minus\p@ \itemsep \parsep }\belowdisplayskip \abovedisplayskip \add@extra@listi {sml}Diagrama del banco de pruebas para el Sniffer.\relax }}{51}}
\@writefile{toc}{\contentsline {section}{\numberline {A.2}Prueba b\IeC {\'a}sica}{52}}
\newlabel{basic_test}{{A.2}{52}}
\@writefile{toc}{\contentsline {section}{\numberline {A.3}Largo de frame variable}{54}}
\newlabel{variable_frame_test}{{A.3}{54}}
\@writefile{toc}{\contentsline {section}{\numberline {A.4}Lista completa de pruebas realizadas}{57}}
\@setckpt{Anexos/Anexos}{
\setcounter{page}{58}
\setcounter{equation}{0}
\setcounter{enumi}{0}
\setcounter{enumii}{0}
\setcounter{enumiii}{0}
\setcounter{enumiv}{0}
\setcounter{footnote}{0}
\setcounter{mpfootnote}{0}
\setcounter{part}{0}
\setcounter{chapter}{1}
\setcounter{section}{4}
\setcounter{subsection}{0}
\setcounter{subsubsection}{0}
\setcounter{paragraph}{0}
\setcounter{subparagraph}{0}
\setcounter{figure}{2}
\setcounter{table}{0}
\setcounter{parentequation}{0}
\setcounter{float@type}{8}
\setcounter{subfigure}{0}
\setcounter{lofdepth}{1}
\setcounter{subtable}{0}
\setcounter{lotdepth}{1}
\setcounter{LT@tables}{0}
\setcounter{LT@chunks}{0}
\setcounter{nlinenum}{0}
\setcounter{ContinuedFloat}{0}
\setcounter{r@tfl@t}{0}
\setcounter{lstnumber}{24}
\setcounter{lstlisting}{0}
}
